{
  "run184": { "s34": 639387, "cl34": 975801, "ar34": 2228397, "pileup": 78049, "all": 4380217 },
  "run183": { "s34": 884203, "cl34": 1350614, "ar34": 2996440, "pileup": 119498, "all": 5969000 },
  "run179": { "s34": 367923, "cl34": 542525, "ar34": 1185119, "pileup": 45579, "all": 2369972 },
  "run185": { "s34": 500072, "cl34": 752380, "ar34": 1748452, "pileup": 60094, "all": 3427319 },
  "run178": { "s34": 854024, "cl34": 1282385, "ar34": 2800456, "pileup": 116669, "all": 5618446 },
  "run191": { "s34": 316585, "cl34": 466124, "ar34": 1049520, "pileup": 40578, "all": 2096057 },
  "run192": { "s34": 745699, "cl34": 1111149, "ar34": 2548664, "pileup": 100185, "all": 5046384 },
  "run186": { "s34": 236530, "cl34": 356304, "ar34": 815390, "pileup": 28014, "all": 1606897 },
  "run193": { "s34": 781474, "cl34": 1279486, "ar34": 2861914, "pileup": 128571, "all": 5679107 },
  "run194": { "s34": 808985, "cl34": 1212044, "ar34": 2527268, "pileup": 98407, "all": 5188702 },
  "run198": { "s34": 795803, "cl34": 1716052, "ar34": 3255379, "pileup": 210459, "all": 6813475 },
  "run195": { "s34": 642264, "cl34": 978165, "ar34": 2028435, "pileup": 80481, "all": 4166056 },
  "run200": { "s34": 911442, "cl34": 2147051, "ar34": 4022064, "pileup": 273563, "all": 8396526 },
  "run268": { "s34": 1122804, "cl34": 3275283, "ar34": 7261874, "pileup": 1002658, "all": 15544337 },
  "run266": { "s34": 766402, "cl34": 2080779, "ar34": 4099325, "pileup": 354715, "all": 8538707 },
  "run269": { "s34": 955485, "cl34": 2658914, "ar34": 5987532, "pileup": 711941, "all": 12527471 },
  "run201": { "s34": 511816, "cl34": 1231378, "ar34": 2342411, "pileup": 176893, "all": 4879408 },
  "run270": { "s34": 957612, "cl34": 2918080, "ar34": 6524182, "pileup": 939063, "all": 14169242 },
  "run271": { "s34": 1128333, "cl34": 3205387, "ar34": 6828459, "pileup": 990443, "all": 15169826 },
  "run272": { "s34": 1395980, "cl34": 3937037, "ar34": 8471351, "pileup": 1187590, "all": 18504491 },
  "run273": { "s34": 1187516, "cl34": 3259444, "ar34": 6828553, "pileup": 910850, "all": 14956201 },
  "run275": { "s34": 1224524, "cl34": 3516407, "ar34": 7598865, "pileup": 1118567, "all": 16787054 },
  "run274": { "s34": 1164526, "cl34": 3290272, "ar34": 7001585, "pileup": 1005933, "all": 15493291 },
  "run276": { "s34": 1121977, "cl34": 3176084, "ar34": 6970253, "pileup": 988969, "all": 15194302 },
  "run279": { "s34": 32284, "cl34": 77080, "ar34": 150446, "pileup": 5155, "all": 303742 },
  "run280": { "s34": 389973, "cl34": 967772, "ar34": 2044948, "pileup": 152991, "all": 4177353 },
  "run277": { "s34": 1054809, "cl34": 2964485, "ar34": 6657683, "pileup": 816545, "all": 14045574 },
  "run278": { "s34": 74425, "cl34": 237106, "ar34": 591064, "pileup": 52865, "all": 1137840 },
  "run281": { "s34": 899569, "cl34": 2647226, "ar34": 5853356, "pileup": 663915, "all": 12126366 },
  "run282": { "s34": 725947, "cl34": 2152927, "ar34": 4613048, "pileup": 544897, "all": 9723400 },
  "run283": { "s34": 844826, "cl34": 2514971, "ar34": 5472664, "pileup": 516837, "all": 11081022 },
  "run284": { "s34": 878988, "cl34": 2647117, "ar34": 5847519, "pileup": 521517, "all": 11692961 },
  "run285": { "s34": 483934, "cl34": 1427642, "ar34": 3139490, "pileup": 291677, "all": 6311754 },
  "run287": { "s34": 32622, "cl34": 100406, "ar34": 219166, "pileup": 17070, "all": 434964 },
  "run212": { "s34": 270783, "cl34": 445806, "ar34": 680109, "pileup": 32414, "all": 1579648 },
  "run215": { "s34": 1014779, "cl34": 1806967, "ar34": 2840288, "pileup": 119812, "all": 6391833 },
  "run214": { "s34": 1115205, "cl34": 2217100, "ar34": 3483576, "pileup": 192818, "all": 7791537 },
  "run219": { "s34": 116154, "cl34": 209329, "ar34": 328337, "pileup": 13104, "all": 733418 },
  "run216": { "s34": 37105, "cl34": 77919, "ar34": 147376, "pileup": 7038, "all": 299339 },
  "run224": { "s34": 278403, "cl34": 578180, "ar34": 1068375, "pileup": 29895, "all": 2148121 },
  "run230": { "s34": 199337, "cl34": 524324, "ar34": 1034965, "pileup": 101751, "all": 2171744 },
  "run223": { "s34": 708230, "cl34": 1598730, "ar34": 3002505, "pileup": 106857, "all": 5961572 },
  "run229": { "s34": 1005667, "cl34": 2597441, "ar34": 4899021, "pileup": 342513, "all": 10112945 },
  "run241": { "s34": 404554, "cl34": 1039855, "ar34": 2138563, "pileup": 104625, "all": 4154124 },
  "run238": { "s34": 726578, "cl34": 1915111, "ar34": 3845040, "pileup": 219627, "all": 7634745 },
  "run251": { "s34": 697841, "cl34": 1714160, "ar34": 3562324, "pileup": 133189, "all": 6870385 },
  "run248": { "s34": 756646, "cl34": 1993360, "ar34": 4002229, "pileup": 178469, "all": 7798107 },
  "run253": { "s34": 752200, "cl34": 1989624, "ar34": 4270828, "pileup": 194537, "all": 8188530 },
  "run259": { "s34": 655082, "cl34": 1674641, "ar34": 3260660, "pileup": 174916, "all": 6543308 },
  "run254": { "s34": 699102, "cl34": 1828585, "ar34": 3721650, "pileup": 234327, "all": 7402977 },
  "run260": { "s34": 288826, "cl34": 22, "ar34": 1410693, "pileup": 65394, "all": 2756448 },
  "run187": { "s34": 6345, "cl34": 702, "ar34": 1143, "pileup": 3930, "all": 9010 },
  "run218": { "s34": 691159, "cl34": 1857287, "ar34": 3367136, "pileup": 1184379, "all": 6890133 },
  "run226": { "s34": 43568, "cl34": 126922, "ar34": 220004, "pileup": 80288, "all": 438463 },
  "run228": { "s34": 352791, "cl34": 971820, "ar34": 1701868, "pileup": 646091, "all": 3400750 },
  "run239": { "s34": 687518, "cl34": 1906934, "ar34": 3807944, "pileup": 1416134, "all": 7451721 },
  "run240": { "s34": 657721, "cl34": 1788923, "ar34": 3559864, "pileup": 1311812, "all": 7001648 },
  "run244": { "s34": 600265, "cl34": 1693621, "ar34": 3311532, "pileup": 1148705, "all": 6439877 },
  "run246": { "s34": 607329, "cl34": 1742703, "ar34": 3356331, "pileup": 1258267, "all": 6608977 },
  "run247": { "s34": 420430, "cl34": 1198988, "ar34": 2343781, "pileup": 869081, "all": 4575335 },
  "run249": { "s34": 898865, "cl34": 2451739, "ar34": 4769797, "pileup": 1848801, "all": 9365092 },
  "run250": { "s34": 568847, "cl34": 1685401, "ar34": 3629107, "pileup": 1187779, "all": 6803009 },
  "run294": { "s34": 781273, "cl34": 2543943, "ar34": 4671487, "pileup": 712152, "all": 11815777 },
  "run295": { "s34": 907822, "cl34": 2860208, "ar34": 5114107, "pileup": 658225, "all": 12721352 },
  "run298": { "s34": 1119298, "cl34": 4249722, "ar34": 9401577, "pileup": 1425922, "all": 22106632 },
  "run296": { "s34": 869885, "cl34": 2691785, "ar34": 4807271, "pileup": 542331, "all": 11714921 },
  "run297": { "s34": 943408, "cl34": 3307253, "ar34": 6833183, "pileup": 975152, "all": 16258535 },
  "run302": { "s34": 830523, "cl34": 2967859, "ar34": 6117446, "pileup": 827005, "all": 14734767 },
  "run305": { "s34": 614714, "cl34": 1926189, "ar34": 4177818, "pileup": 577716, "all": 10136392 },
  "run300": { "s34": 975688, "cl34": 3737361, "ar34": 8337966, "pileup": 1240769, "all": 19690106 },
  "run299": { "s34": 896455, "cl34": 3409465, "ar34": 7593356, "pileup": 1129273, "all": 17800906 },
  "run301": { "s34": 934575, "cl34": 3475973, "ar34": 7610474, "pileup": 1131638, "all": 18073111 },
  "run308": { "s34": 1065246, "cl34": 3756589, "ar34": 8237317, "pileup": 1070034, "all": 19844684 },
  "run307": { "s34": 894081, "cl34": 3062818, "ar34": 6355651, "pileup": 818528, "all": 15459618 },
  "run310": { "s34": 1004702, "cl34": 3508376, "ar34": 7409475, "pileup": 934321, "all": 17632056 },
  "run309": { "s34": 873654, "cl34": 3056607, "ar34": 6386259, "pileup": 912785, "all": 15653474 },
  "run311": { "s34": 960062, "cl34": 3252453, "ar34": 6889110, "pileup": 780081, "all": 15981534 },
  "run314": { "s34": 604052, "cl34": 2114244, "ar34": 4483847, "pileup": 533813, "all": 10432841 },
  "run312": { "s34": 555294, "cl34": 1898414, "ar34": 4068056, "pileup": 450440, "all": 9335288 },
  "run317": { "s34": 590774, "cl34": 2305307, "ar34": 4812388, "pileup": 637956, "all": 11456186 },
  "run313": { "s34": 91183, "cl34": 318756, "ar34": 681406, "pileup": 78772, "all": 1573176 },
  "run315": { "s34": 388760, "cl34": 1350998, "ar34": 2857785, "pileup": 317721, "all": 6617784 },
  "run318": { "s34": 536226, "cl34": 2111705, "ar34": 4546529, "pileup": 601777, "all": 10720781 },
  "run319": { "s34": 554108, "cl34": 2246062, "ar34": 5017037, "pileup": 722203, "all": 11855012 },
  "run320": { "s34": 375584, "cl34": 1658615, "ar34": 4069867, "pileup": 496800, "all": 9038815 },
  "run322": { "s34": 599833, "cl34": 2294949, "ar34": 4956443, "pileup": 726094, "all": 12354944 },
  "run321": { "s34": 385363, "cl34": 1535953, "ar34": 3492397, "pileup": 475435, "all": 8432982 },
  "run324": { "s34": 592803, "cl34": 2243646, "ar34": 4912109, "pileup": 735416, "all": 12177449 },
  "run323": { "s34": 577870, "cl34": 2268084, "ar34": 5102342, "pileup": 757775, "all": 12520414 },
  "run325": { "s34": 659455, "cl34": 2500388, "ar34": 5426240, "pileup": 852380, "all": 13687694 },
  "run326": { "s34": 686455, "cl34": 2556289, "ar34": 5474253, "pileup": 873884, "all": 14044550 },
  "run327": { "s34": 678292, "cl34": 2500484, "ar34": 5499197, "pileup": 906662, "all": 14015705 },
  "run328": { "s34": 686360, "cl34": 2598220, "ar34": 5808630, "pileup": 907856, "all": 14505655 },
  "run329": { "s34": 637983, "cl34": 2346831, "ar34": 5113587, "pileup": 650388, "all": 12462742 },
  "run330": { "s34": 313524, "cl34": 1069979, "ar34": 2183088, "pileup": 247107, "all": 5353680 },
  "run331": { "s34": 596743, "cl34": 2209829, "ar34": 4884612, "pileup": 618524, "all": 11826622 },
  "run334": { "s34": 533989, "cl34": 2142667, "ar34": 5056103, "pileup": 549530, "all": 11635311 },
  "run332": { "s34": 588468, "cl34": 2199991, "ar34": 4896616, "pileup": 585531, "all": 11650769 },
  "run336": { "s34": 616473, "cl34": 2441956, "ar34": 5505351, "pileup": 700926, "all": 13262880 },
  "run333": { "s34": 558118, "cl34": 2102900, "ar34": 4726085, "pileup": 572301, "all": 11258118 },
  "run335": { "s34": 511695, "cl34": 1979939, "ar34": 4541511, "pileup": 461411, "all": 10497085 },
  "run337": { "s34": 710695, "cl34": 2843440, "ar34": 6284658, "pileup": 1054562, "all": 16014247 },
  "run339": { "s34": 628633, "cl34": 2454664, "ar34": 5445610, "pileup": 880412, "all": 13984638 },
  "run340": { "s34": 735166, "cl34": 2974730, "ar34": 6168847, "pileup": 1012379, "all": 16025277 },
  "run338": { "s34": 580909, "cl34": 2421493, "ar34": 5745888, "pileup": 1026104, "all": 14615704 },
  "run341": { "s34": 764360, "cl34": 3066005, "ar34": 6677489, "pileup": 1510857, "all": 18560437 },
  "run342": { "s34": 478549, "cl34": 2017416, "ar34": 4880108, "pileup": 724545, "all": 11890157 },
  "run344": { "s34": 697639, "cl34": 2632602, "ar34": 5509316, "pileup": 1080879, "all": 14843009 },
  "run343": { "s34": 841234, "cl34": 3033455, "ar34": 5912175, "pileup": 1159981, "all": 16387243 },
  "run349": { "s34": 811105, "cl34": 2983836, "ar34": 5389587, "pileup": 925954, "all": 14434413 },
  "run345": { "s34": 474729, "cl34": 1712263, "ar34": 3585906, "pileup": 723514, "all": 9725363 },
  "run350": { "s34": 751606, "cl34": 2650676, "ar34": 4696042, "pileup": 760542, "all": 12585729 },
  "run353": { "s34": 835054, "cl34": 3213725, "ar34": 6721785, "pileup": 1323405, "all": 17875441 },
  "run354": { "s34": 822224, "cl34": 3187719, "ar34": 6985582, "pileup": 1203294, "all": 17765900 },
  "run351": { "s34": 815288, "cl34": 3127246, "ar34": 6305114, "pileup": 1155647, "all": 16623337 },
  "run352": { "s34": 671732, "cl34": 2609978, "ar34": 5417529, "pileup": 966509, "all": 14054001 },
  "run355": { "s34": 556924, "cl34": 2308517, "ar34": 5431526, "pileup": 832169, "all": 13224219 },
  "run357": { "s34": 765977, "cl34": 2942089, "ar34": 6662003, "pileup": 1424999, "all": 18199636 },
  "run358": { "s34": 862308, "cl34": 3343265, "ar34": 7724937, "pileup": 2228123, "all": 22966445 },
  "run359": { "s34": 765911, "cl34": 2983932, "ar34": 6750816, "pileup": 1980715, "all": 20389544 },
  "run360": { "s34": 953065, "cl34": 3606923, "ar34": 8018738, "pileup": 2075956, "all": 23364895 },
  "run361": { "s34": 635127, "cl34": 2450301, "ar34": 5564527, "pileup": 1437068, "all": 16109026 },
  "run366": { "s34": 814644, "cl34": 3039669, "ar34": 6300929, "pileup": 1577262, "all": 18569066 },
  "run369": { "s34": 808571, "cl34": 2773120, "ar34": 5680270, "pileup": 1488647, "all": 17333863 },
  "run367": { "s34": 661458, "cl34": 2554834, "ar34": 5881988, "pileup": 1555561, "all": 17148415 },
  "run370": { "s34": 826787, "cl34": 2881367, "ar34": 5840592, "pileup": 1555334, "all": 17914602 },
  "run371": { "s34": 765501, "cl34": 2814774, "ar34": 6276401, "pileup": 1458758, "all": 17915181 },
  "run372": { "s34": 548879, "cl34": 1916174, "ar34": 3943904, "pileup": 1273392, "all": 12774237 },
  "run373": { "s34": 945191, "cl34": 3287039, "ar34": 6746099, "pileup": 2210394, "all": 21932403 },
  "run374": { "s34": 871935, "cl34": 2942992, "ar34": 5779378, "pileup": 1729141, "all": 18441510 },
  "run376": { "s34": 681550, "cl34": 2276345, "ar34": 4563493, "pileup": 1281985, "all": 14265630 },
  "run375": { "s34": 793605, "cl34": 2627144, "ar34": 5091362, "pileup": 1434103, "all": 16070575 },
  "run379": { "s34": 910111, "cl34": 3175039, "ar34": 6646004, "pileup": 1985812, "all": 20907620 },
  "run381": { "s34": 876424, "cl34": 3059216, "ar34": 6644286, "pileup": 1726331, "all": 19883252 },
  "run380": { "s34": 445900, "cl34": 1523266, "ar34": 3124918, "pileup": 943846, "all": 9945899 },
  "run382": { "s34": 707235, "cl34": 2639205, "ar34": 5750006, "pileup": 1772346, "all": 18055181 },
  "run385": { "s34": 632706, "cl34": 2248439, "ar34": 4619178, "pileup": 1366262, "all": 14404828 },
  "run386": { "s34": 88772, "cl34": 333950, "ar34": 705995, "pileup": 167834, "all": 2059694 },
  "run384": { "s34": 755576, "cl34": 2734696, "ar34": 5586600, "pileup": 1804705, "all": 17925754 },
  "run383": { "s34": 702481, "cl34": 2639618, "ar34": 5479396, "pileup": 2098168, "all": 18768223 },
  "run389": { "s34": 657446, "cl34": 2629649, "ar34": 5512437, "pileup": 1770654, "all": 17482237 },
  "run390": { "s34": 647569, "cl34": 2524600, "ar34": 5034500, "pileup": 2017648, "all": 17488346 },
  "run391": { "s34": 754071, "cl34": 2919903, "ar34": 5740445, "pileup": 2332730, "all": 20048938 },
  "run392": { "s34": 702501, "cl34": 2670776, "ar34": 5097480, "pileup": 2149271, "all": 18203015 },
  "run394": { "s34": 8410, "cl34": 29050, "ar34": 51141, "pileup": 17123, "all": 174000 },
  "run396": { "s34": 11847, "cl34": 42537, "ar34": 79484, "pileup": 24424, "all": 258413 },
  "run393": { "s34": 697575, "cl34": 2631766, "ar34": 4958851, "pileup": 2120595, "all": 17892891 },
  "run399": { "s34": 863133, "cl34": 2850832, "ar34": 4409648, "pileup": 1679046, "all": 16321346 },
  "run400": { "s34": 100620, "cl34": 326151, "ar34": 489953, "pileup": 186048, "all": 1829680 },
  "run401": { "s34": 977779, "cl34": 3245954, "ar34": 5082025, "pileup": 2106211, "all": 19224185 },
  "run402": { "s34": 958283, "cl34": 3194951, "ar34": 5167733, "pileup": 2285656, "all": 19840577 },
  "run407": { "s34": 691567, "cl34": 2328997, "ar34": 3769680, "pileup": 1628599, "all": 14347434 },
  "run408": { "s34": 684864, "cl34": 2296282, "ar34": 3755134, "pileup": 1590212, "all": 14107031 },
  "run406": { "s34": 704930, "cl34": 2388180, "ar34": 3873297, "pileup": 1713502, "all": 14836200 },
  "run409": { "s34": 689300, "cl34": 2288372, "ar34": 3741987, "pileup": 1577821, "all": 14062704 },
  "run412": { "s34": 643564, "cl34": 2230366, "ar34": 3996115, "pileup": 1600417, "all": 14359885 },
  "run410": { "s34": 667543, "cl34": 2264520, "ar34": 3801177, "pileup": 1590487, "all": 14101260 },
  "run411": { "s34": 616998, "cl34": 2211834, "ar34": 3995690, "pileup": 1602310, "all": 14289917 },
  "run413": { "s34": 589048, "cl34": 2122635, "ar34": 3829719, "pileup": 1512680, "all": 13666914 },
  "run415": { "s34": 619721, "cl34": 2232007, "ar34": 3977403, "pileup": 1731780, "all": 14682339 },
  "run416": { "s34": 497226, "cl34": 1816244, "ar34": 3268332, "pileup": 1398115, "all": 11952779 },
  "run417": { "s34": 106332, "cl34": 383084, "ar34": 676193, "pileup": 294856, "all": 2503194 },
  "run414": { "s34": 608362, "cl34": 2197329, "ar34": 3983840, "pileup": 1627696, "all": 14314877 },
  "run418": { "s34": 212885, "cl34": 745692, "ar34": 1311850, "pileup": 577055, "all": 4871874 },
  "run421": { "s34": 632882, "cl34": 2206074, "ar34": 3826701, "pileup": 1649852, "all": 14151226 },
  "run420": { "s34": 613123, "cl34": 2145959, "ar34": 3772884, "pileup": 1633729, "all": 13965854 },
  "run422": { "s34": 594221, "cl34": 2103458, "ar34": 3679758, "pileup": 1495856, "all": 13210567 },
  "run419": { "s34": 585826, "cl34": 2075376, "ar34": 3637098, "pileup": 1593102, "all": 13491274 },
  "run428": { "s34": 576625, "cl34": 2112714, "ar34": 3609504, "pileup": 1552568, "all": 13064121 },
  "run430": { "s34": 565312, "cl34": 2059661, "ar34": 3499995, "pileup": 1583275, "all": 13029415 },
  "run432": { "s34": 335283, "cl34": 1170552, "ar34": 2009710, "pileup": 888290, "all": 7444411 },
  "run431": { "s34": 616468, "cl34": 2212515, "ar34": 3761128, "pileup": 1685694, "all": 14001394 },
  "run429": { "s34": 534337, "cl34": 1954900, "ar34": 3265649, "pileup": 1477449, "all": 12183619 },
  "run433": { "s34": 601055, "cl34": 2104646, "ar34": 3632489, "pileup": 1599303, "all": 13392318 },
  "run434": { "s34": 462881, "cl34": 1546336, "ar34": 2627114, "pileup": 1157993, "all": 9762156 },
  "run436": { "s34": 669097, "cl34": 2260572, "ar34": 3877790, "pileup": 1662691, "all": 14275165 },
  "run435": { "s34": 636102, "cl34": 2016970, "ar34": 3322372, "pileup": 1437532, "all": 12432443 },
  "run437": { "s34": 625122, "cl34": 2132381, "ar34": 3724967, "pileup": 1584457, "all": 13606349 },
  "run438": { "s34": 643446, "cl34": 2164277, "ar34": 3790751, "pileup": 1551768, "all": 13664977 },
  "run440": { "s34": 655721, "cl34": 2153194, "ar34": 3766779, "pileup": 1517375, "all": 13559494 },
  "run441": { "s34": 681178, "cl34": 2204968, "ar34": 3809971, "pileup": 1521253, "all": 13759835 },
  "run439": { "s34": 646092, "cl34": 2158396, "ar34": 3777181, "pileup": 1536905, "all": 13616866 },
  "run443": { "s34": 606036, "cl34": 1990992, "ar34": 3551420, "pileup": 1418656, "all": 12728046 },
  "run442": { "s34": 669448, "cl34": 2176111, "ar34": 3813098, "pileup": 1470643, "all": 13542019 },
  "run445": { "s34": 583605, "cl34": 1988099, "ar34": 3746901, "pileup": 1348492, "all": 12804297 },
  "run444": { "s34": 621924, "cl34": 2092269, "ar34": 3817460, "pileup": 1273118, "all": 12849642 },
  "run446": { "s34": 27873, "cl34": 97291, "ar34": 185794, "pileup": 64577, "all": 624149 }
}
