{
  "run178": [5998691, 5982194],
  "run179": [2520237, 2514065],
  "run183": [6372510, 6356465],
  "run184": [4676487, 4666273],
  "run185": [3663197, 3655166],
  "run186": [1713246, 1709566],
  "run187": [9601, 9601],
  "run191": [2236508, 2231184],
  "run192": [5384961, 5371583],
  "run193": [6079820, 6062192],
  "run194": [5546438, 5533451],
  "run195": [4456232, 4445542],
  "run198": [7299150, 7269510],
  "run200": [9028823, 8991051],
  "run201": [5236237, 5212012],
  "run212": [1680309, 1675355],
  "run214": [8320173, 8291395],
  "run215": [6802431, 6784986],
  "run216": [340177, 339023],
  "run218": [7360604, 7331007],
  "run219": [800610, 798735],
  "run223": [6347584, 6332624],
  "run224": [2290601, 2286549],
  "run226": [465569, 464596],
  "run228": [3616079, 3609274],
  "run229": [10871229, 10819055],
  "run230": [2387448, 2371156],
  "run238": [8174249, 8141476],
  "run239": [7960969, 7932724],
  "run240": [7481962, 7455973],
  "run241": [4425879, 4411032],
  "run244": [6849724, 6830613],
  "run246": [7053681, 7032908],
  "run247": [4863498, 4851007],
  "run248": [8324143, 8298534],
  "run249": [9974299, 9949463],
  "run250": [7252033, 7233552],
  "run251": [7320091, 7301176],
  "run253": [8744857, 8716647],
  "run254": [7912428, 7877121],
  "run259": [7003575, 6977405],
  "run260": [2932187, 2922710],
  "run266": [9152769, 9100295],
  "run268": [16878084, 16715682],
  "run269": [13560985, 13448511],
  "run270": [15406616, 15255829],
  "run271": [16479472, 16319655],
  "run272": [20084235, 19892676],
  "run273": [16208058, 16063154],
  "run274": [16833111, 16669721],
  "run275": [18250777, 18069003],
  "run276": [16507823, 16348336],
  "run277": [15213099, 15085662],
  "run278": [1222988, 1215099],
  "run279": [336508, 335794],
  "run280": [4511624, 4489052],
  "run281": [13119496, 13016939],
  "run282": [10535124, 10449706],
  "run283": [11938590, 11861949],
  "run284": [12584519, 12508691],
  "run285": [6779613, 6736934],
  "run287": [494713, 492089],
  "run294": [12850765, 12721190],
  "run295": [13771979, 13656550],
  "run296": [12643928, 12551575],
  "run297": [17668052, 17494926],
  "run298": [24042771, 23787550],
  "run299": [19363667, 19162536],
  "run300": [21406596, 21186363],
  "run301": [19656545, 19455259],
  "run302": [15935364, 15790606],
  "run305": [10966461, 10865653],
  "run307": [16722542, 16582347],
  "run308": [21454993, 21274815],
  "run309": [16959125, 16800179],
  "run310": [19035033, 18874998],
  "run311": [17248119, 17114668],
  "run312": [10094503, 10017897],
  "run313": [1732627, 1719053],
  "run314": [11281673, 11190379],
  "run315": [7154376, 7100129],
  "run317": [12408827, 12298108],
  "run318": [11613476, 11509796],
  "run319": [12871450, 12744840],
  "run320": [9781348, 9696229],
  "run321": [9148818, 9066733],
  "run322": [13410552, 13282436],
  "run323": [13592248, 13459055],
  "run324": [13227263, 13098055],
  "run325": [14875421, 14722868],
  "run326": [15262847, 15107470],
  "run327": [15248346, 15085765],
  "run328": [15759891, 15597483],
  "run329": [13480778, 13368801],
  "run330": [5791741, 5749940],
  "run331": [12795881, 12689106],
  "run332": [12589095, 12488586],
  "run333": [12175081, 12076360],
  "run334": [12564583, 12471010],
  "run335": [11324429, 11246538],
  "run336": [14361347, 14239349],
  "run337": [17446829, 17254690],
  "run338": [15939521, 15748740],
  "run339": [15218548, 15058486],
  "run340": [17443896, 17259818],
  "run341": [20384059, 20093642],
  "run342": [12947405, 12817265],
  "run343": [17901324, 17682211],
  "run344": [16224869, 16024438],
  "run345": [10605072, 10470520],
  "run349": [15701433, 15533988],
  "run350": [13668183, 13531641],
  "run351": [18132217, 17920160],
  "run352": [15305890, 15129709],
  "run353": [19543597, 19295634],
  "run354": [19349900, 19129342],
  "run355": [14333648, 14184437],
  "run357": [19960372, 19686287],
  "run358": [25465941, 25005572],
  "run359": [22631826, 22216594],
  "run360": [25765674, 25351738],
  "run361": [17783024, 17496273],
  "run366": [20498342, 20172769],
  "run367": [18910521, 18593845],
  "run369": [19149385, 18841066],
  "run370": [19770386, 19460423],
  "run371": [19676863, 19392505],
  "run372": [14217107, 13948000],
  "run373": [24405522, 23937905],
  "run374": [20437394, 20084883],
  "run375": [17763707, 17475838],
  "run376": [15802576, 15537443],
  "run379": [23203240, 22791472],
  "run380": [11011193, 10817485],
  "run381": [21917067, 21572657],
  "run382": [20110435, 19723659],
  "run383": [21507430, 20798470],
  "run384": [20165091, 19693092],
  "run385": [16054406, 15746798],
  "run386": [2301539, 2267255],
  "run389": [19900930, 19318469],
  "run390": [21085804, 19817418],
  "run391": [24446735, 22825247],
  "run392": [22487819, 20853993],
  "run393": [22035018, 20448563],
  "run394": [199176, 192601],
  "run396": [287715, 282310],
  "run399": [18622563, 18070611],
  "run400": [2118904, 2067878],
  "run401": [22882931, 21688998],
  "run402": [23834272, 22471521],
  "run406": [18018542, 16910994],
  "run407": [17181223, 16259721],
  "run408": [16803167, 15949658],
  "run409": [16729216, 15890344],
  "run410": [16844709, 15958228],
  "run411": [17025674, 16133361],
  "run412": [17051631, 16187560],
  "run413": [16135095, 15366549],
  "run414": [17228846, 16234988],
  "run415": [18142211, 16847311],
  "run416": [14641993, 13668222],
  "run417": [3141637, 2921079],
  "run418": [6060906, 5631971],
  "run419": [16639023, 15480924],
  "run420": [17067567, 15964137],
  "run421": [17255408, 16159625],
  "run422": [15755576, 14908105],
  "run428": [16044240, 14983458],
  "run429": [15186394, 14086417],
  "run430": [16239108, 15063304],
  "run431": [17342712, 16140619],
  "run432": [9139335, 8534787],
  "run433": [16502637, 15403885],
  "run434": [11947962, 11174283],
  "run435": [15049864, 14190036],
  "run436": [17254657, 16273777],
  "run437": [16477469, 15525370],
  "run438": [16292540, 15480934],
  "run439": [16184016, 15404978],
  "run440": [16048504, 15313348],
  "run441": [16181930, 15494737],
  "run442": [15791368, 15190882],
  "run443": [14989990, 14334158],
  "run444": [14583513, 14211799],
  "run445": [14672151, 14230571],
  "run446": [761505, 740950]
}
